Data Analysis-1
…
`summarise()` has grouped output by 'aw'. You can override using the `.groups`
argument.

# Print the results
print(desc_stats)

# A tibble: 30 × 8
# Groups:   aw [3]
      aw   Day  mean median    sd   min   max range
   <dbl> <dbl> <dbl>  <dbl> <dbl> <dbl> <dbl> <dbl>
 1  0.45     0  7.13   7.01 0.516  6.57  7.76  1.19
 2  0.45     3  6.54   6.42 0.799  5.45  7.57  2.12
 3  0.45     7  5.82   5.5  0.699  4.79  6.85  2.06
 4  0.45    14  5.82   5.64 0.747  4.67  6.7   2.03
 5  0.45    21  5.43   5.35 0.691  4.36  6.33  1.97
 6  0.45    28  5.30   5.49 0.897  3.45  6.25  2.8 
 7  0.45    42  4.93   5.15 0.784  3.77  5.96  2.19
 8  0.45    56  4.45   4.45 0.778  3.31  5.47  2.16
 9  0.45    84  4.12   4.11 0.734  2.95  5.06  2.11
10  0.45   112  3.16   2.68 0.978  2.08  4.93  2.85
# ℹ 20 more rows
…
